NYPD_prj
…
##   INCIDENT_KEY OCCUR_DATE OCCUR_TIME BORO     PRECINCT JURISDICTION_CODE
##          <dbl> <date>     <time>     <chr>       <dbl>             <dbl>
## 1     24050482 2006-08-27 05:35      BRONX          52                 0
## 2     77673979 2011-03-11 12:03      QUEENS        106                 0
## 3    203350417 2019-10-06 01:09      BROOKLYN       77                 0
## 4     80584527 2011-09-04 03:35      BRONX          40                 0
## 5     90843766 2013-05-27 21:16      QUEENS        100                 0
## 6     92393427 2013-09-01 04:17      BROOKLYN       67                 0
## # ... with 14 more variables: LOCATION_DESC <chr>,
## #   STATISTICAL_MURDER_FLAG <lgl>, PERP_AGE_GROUP <chr>, PERP_SEX <chr>,
## #   PERP_RACE <chr>, VIC_AGE_GROUP <chr>, VIC_SEX <chr>, VIC_RACE <chr>,
## #   X_COORD_CD <dbl>, Y_COORD_CD <dbl>, Latitude <dbl>, Longitude <dbl>,
## #   Lon_Lat <chr>, OCCUR_DATE_TIME <dttm>

## # A tibble: 23,585 x 18
##    OCCUR_DATE_TIME     OCCUR_DATE OCCUR_TIME INCIDENT_KEY JURISDICTION_CODE
##    <dttm>              <date>     <time>            <dbl>             <dbl>
##  1 2006-08-27 05:35:00 2006-08-27 05:35          24050482                 0
##  2 2011-03-11 12:03:00 2011-03-11 12:03          77673979                 0
##  3 2019-10-06 01:09:00 2019-10-06 01:09         203350417                 0
##  4 2011-09-04 03:35:00 2011-09-04 03:35          80584527                 0
##  5 2013-05-27 21:16:00 2013-05-27 21:16          90843766                 0
##  6 2013-09-01 04:17:00 2013-09-01 04:17          92393427                 0
##  7 2010-06-05 21:16:00 2010-06-05 21:16          73057167                 0
##  8 2020-03-20 21:27:00 2020-03-20 21:27         211362213                 0
##  9 2014-07-04 00:25:00 2014-07-04 00:25         137564752                 0
## 10 2015-10-18 01:33:00 2015-10-18 01:33         147024011                 0
## # ... with 23,575 more rows, and 13 more variables: LOCATION_DESC <chr>,
## #   BORO <chr>, PRECINCT <dbl>, STATISTICAL_MURDER_FLAG <lgl>, PERP_RACE <chr>,
## #   PERP_AGE_GROUP <chr>, PERP_SEX <chr>, VIC_AGE_GROUP <chr>, VIC_SEX <chr>,
## #   VIC_RACE <chr>, Latitude <dbl>, Longitude <dbl>, Lon_Lat <chr>
…
